{
  "name": "Antonio",
  "version": "0.0.1",
  "description": "Personal Website",
  "main": "Gruntfile.js",
  "scripts": {
    "test": "echo \"Error: no test specified\" && exit 1"
  },
  "author": "Antonio Fullone",
  "license": "MIT",
  "devDependencies": {
    "grunt": "~0.4.5",
    "grunt-autoprefixer": "~0.8.2",
    "grunt-browserify": "^3.1.0",
    "grunt-contrib-cssmin": "^0.10.0",
    "grunt-contrib-jshint": "^0.10.0",
    "grunt-contrib-sass": "~0.7.3",
    "grunt-contrib-uglify": "^0.6.0",
    "grunt-contrib-watch": "~0.6.1",
    "grunt-watchify": "^0.1.0"
  }
}
