<?xml version="1.0" encoding="UTF-8" standalone="no"?>
<svg width="80px" height="80px" viewBox="0 0 80 80" version="1.1" xmlns="http://www.w3.org/2000/svg" xmlns:xlink="http://www.w3.org/1999/xlink" xmlns:sketch="http://www.bohemiancoding.com/sketch/ns">
    <!-- Generator: Sketch 3.2.2 (9983) - http://www.bohemiancoding.com/sketch -->
    <title>logo</title>
    <desc>Created with Sketch.</desc>
    <defs></defs>
    <g id="Blog-Post" stroke="none" stroke-width="1" fill="none" fill-rule="evenodd" sketch:type="MSPage">
        <g id="Desktop-HD" sketch:type="MSArtboardGroup" transform="translate(-66.000000, -52.000000)">
            <g id="logo" sketch:type="MSLayerGroup" transform="translate(66.000000, 52.000000)">
                <circle fill="#4A4A4A" sketch:type="MSShapeGroup" cx="40" cy="40" r="40"></circle>
                <text id="A" sketch:type="MSTextLayer" font-family="ChopinScript" font-size="48" font-weight="420" fill="#FFFFFF">
                    <tspan x="8" y="52">A</tspan>
                </text>
            </g>
        </g>
    </g>
</svg>