<?xml version="1.0" encoding="UTF-8" standalone="no"?>
<svg width="111px" height="86px" viewBox="0 0 111 86" version="1.1" xmlns="http://www.w3.org/2000/svg" xmlns:xlink="http://www.w3.org/1999/xlink" xmlns:sketch="http://www.bohemiancoding.com/sketch/ns">
    <!-- Generator: Sketch 3.3 (11970) - http://www.bohemiancoding.com/sketch -->
    <title>EMAIL</title>
    <desc>Created with Sketch.</desc>
    <defs></defs>
    <g id="Page-2" stroke="none" stroke-width="1" fill="none" fill-rule="evenodd" sketch:type="MSPage">
        <g id="EMAIL" sketch:type="MSLayerGroup" stroke="#110F0F" stroke-width="5.24590164">
            <rect id="Rectangle-5" sketch:type="MSShapeGroup" x="0" y="0" width="111" height="85"></rect>
            <path d="M3.92688679,81.0648148 L52.6209861,32.2678133" id="Line" stroke-linecap="square" sketch:type="MSShapeGroup"></path>
            <path d="M107.073113,81.5895062 L55.2322581,29.6390997" id="Line" stroke-linecap="square" sketch:type="MSShapeGroup"></path>
            <g id="Line-+-Line" transform="translate(3.665094, 3.672840)" fill="#FFFFFF" stroke-linecap="square" sketch:type="MSShapeGroup">
                <path d="M0.261792453,0.262345679 L51.5791251,51.6881234 L102.884434,0.787037037" id="Line"></path>
            </g>
        </g>
    </g>
</svg>